CPU.vcd
$date
	Sun Dec 16 18:14:56 2018
$end
$version
	Icarus Verilog
$end
$timescale
	1s
$end
$scope module TestBench $end
$var reg 1 ! Clk $end
$var reg 1 " Start $end
$var integer 32 # counter [31:0] $end
$var integer 32 $ flush [31:0] $end
$var integer 32 % i [31:0] $end
$var integer 32 & outfile [31:0] $end
$var integer 32 ' stall [31:0] $end
$var reg 1 ( test $end
$scope module CPU $end
$var wire 1 ) clk_i $end
$var wire 1 * rst_i $end
$var wire 1 + start_i $end
$var wire 32 , w_ALUSrcMUX_RT_to_ALU [31:0] $end
$var wire 32 - w_ALU_output_to_EXMEM [31:0] $end
$var wire 3 . w_ALUcontrol_to_ALU [2:0] $end
$var wire 8 / w_Control_to_mux8 [7:0] $end
$var wire 32 0 w_DataMemory_data_to_EXMEM [31:0] $end
$var wire 1 1 w_EQ_to_AND $end
$var wire 32 2 w_EXMEM_ALU_data_out [31:0] $end
$var wire 1 3 w_EXMEM_Branch_out $end
$var wire 1 4 w_EXMEM_MemRead_out $end
$var wire 1 5 w_EXMEM_MemWrite_out $end
$var wire 32 6 w_EXMEM_RT_data_to_data_memory [31:0] $end
$var wire 5 7 w_EXMEM_Rd_addr_out [4:0] $end
$var wire 2 8 w_EXMEM_WB_to_MEMWB [1:0] $end
$var wire 1 9 w_HDU_to_IFID $end
$var wire 1 : w_HDU_to_PC $end
$var wire 1 ; w_HDU_to_mux8 $end
$var wire 32 < w_IDEXRt_to_FWD2 [31:0] $end
$var wire 2 = w_IDEX_ALUOp_to_ALUcontrol [1:0] $end
$var wire 1 > w_IDEX_ALUSrc_to_ALUSrcMUX $end
$var wire 3 ? w_IDEX_MEM_to_EXMEM [2:0] $end
$var wire 5 @ w_IDEX_RD_addr_to_EXMEM [4:0] $end
$var wire 5 A w_IDEX_RS_addr_out [4:0] $end
$var wire 5 B w_IDEX_RT_addr_out [4:0] $end
$var wire 2 C w_IDEX_WB_to_EXMEM [1:0] $end
$var wire 3 D w_IDEX_funct3_to_ALUcontrol [2:0] $end
$var wire 7 E w_IDEX_funct7_to_ALUcontrol [6:0] $end
$var wire 32 F w_IDEX_to_FWD1 [31:0] $end
$var wire 32 G w_IDEXimm_to_MUXSrc [31:0] $end
$var wire 32 H w_IFID_addr_out [31:0] $end
$var wire 32 I w_IFID_to_addr_adder [31:0] $end
$var wire 1 J w_IF_Flush $end
$var wire 32 K w_MEMWB_ALU_data_to_MUX_WB [31:0] $end
$var wire 1 L w_MEMWB_MemToReg_out $end
$var wire 32 M w_MEMWB_Memdata_to_MUX_WB [31:0] $end
$var wire 5 N w_MEMWB_Rd_addr_out [4:0] $end
$var wire 1 O w_MEMWB_RegWr_out $end
$var wire 3 P w_MUX8_EX_to_IDEX [2:0] $end
$var wire 3 Q w_MUX8_MEM_to_IDEX [2:0] $end
$var wire 2 R w_MUX8_WB_to_IDEX [1:0] $end
$var wire 32 S w_MUX_FWD1_to_ALU [31:0] $end
$var wire 32 T w_MUX_FWD2_to_MUXSrc [31:0] $end
$var wire 32 U w_MUX_PC_to_PC [31:0] $end
$var wire 32 V w_MUX_WB_out [31:0] $end
$var wire 32 W w_PC_adder_to_MUX_PC [31:0] $end
$var wire 32 X w_PC_out [31:0] $end
$var wire 32 Y w_Reg_RS_out [31:0] $end
$var wire 32 Z w_Reg_RT_out [31:0] $end
$var wire 32 [ w_SignExtend_out [31:0] $end
$var wire 32 \ w_addr_adder_to_MUX_PC [31:0] $end
$var wire 32 ] w_instruction_to_IFID [31:0] $end
$var wire 32 ^ w_shiftleft_to_adder [31:0] $end
$var wire 2 _ w_signal_fw1 [1:0] $end
$var wire 2 ` w_signal_fw2 [1:0] $end
$scope module IFID $end
$var wire 1 J Flush_i $end
$var wire 32 a PC_i [31:0] $end
$var wire 32 b PC_o [31:0] $end
$var wire 1 9 Stall_i $end
$var wire 1 ) clk_i $end
$var wire 32 c inst_i [31:0] $end
$var wire 32 d inst_o [31:0] $end
$var reg 32 e PC_in_reg [31:0] $end
$var reg 32 f PC_out_reg [31:0] $end
$var reg 32 g inst_in_reg [31:0] $end
$var reg 32 h inst_out_reg [31:0] $end
$upscope $end
$scope module IDEX $end
$var wire 2 i ALUOp_o [1:0] $end
$var wire 1 > ALUSrc_o $end
$var wire 3 j EXsig_i [2:0] $end
$var wire 3 k MEMsig_i [2:0] $end
$var wire 3 l MEMsig_o [2:0] $end
$var wire 5 m RDaddr_i [4:0] $end
$var wire 5 n RDaddr_o [4:0] $end
$var wire 5 o RS1addr_i [4:0] $end
$var wire 5 p RS1addr_o [4:0] $end
$var wire 32 q RS1data_i [31:0] $end
$var wire 32 r RS1data_o [31:0] $end
$var wire 5 s RS2addr_i [4:0] $end
$var wire 5 t RS2addr_o [4:0] $end
$var wire 32 u RS2data_i [31:0] $end
$var wire 32 v RS2data_o [31:0] $end
$var wire 32 w SignExtend_i [31:0] $end
$var wire 32 x SignExtend_o [31:0] $end
$var wire 2 y WBsig_i [1:0] $end
$var wire 2 z WBsig_o [1:0] $end
$var wire 1 ) clk_i $end
$var wire 3 { funct3_i [2:0] $end
$var wire 3 | funct3_o [2:0] $end
$var wire 7 } funct7_i [6:0] $end
$var wire 7 ~ funct7_o [6:0] $end
$var reg 2 !" ALUOp_out_reg [1:0] $end
$var reg 1 "" ALUSrc_out_reg $end
$var reg 3 #" EXsig_in_reg [2:0] $end
$var reg 3 $" MEMsig_in_reg [2:0] $end
$var reg 3 %" MEMsig_out_reg [2:0] $end
$var reg 5 &" RDaddr_in_reg [4:0] $end
$var reg 5 '" RDaddr_out_reg [4:0] $end
$var reg 5 (" RS1addr_in_reg [4:0] $end
$var reg 5 )" RS1addr_out_reg [4:0] $end
$var reg 32 *" RS1data_in_reg [31:0] $end
$var reg 32 +" RS1data_out_reg [31:0] $end
$var reg 5 ," RS2addr_in_reg [4:0] $end
$var reg 5 -" RS2addr_out_reg [4:0] $end
$var reg 32 ." RS2data_in_reg [31:0] $end
$var reg 32 /" RS2data_out_reg [31:0] $end
$var reg 32 0" SignExtend_in_reg [31:0] $end
$var reg 32 1" SignExtend_out_reg [31:0] $end
$var reg 2 2" WBsig_in_reg [1:0] $end
$var reg 2 3" WBsig_out_reg [1:0] $end
$var reg 3 4" funct3_in_reg [2:0] $end
$var reg 3 5" funct3_out_reg [2:0] $end
$var reg 7 6" funct7_in_reg [6:0] $end
$var reg 7 7" funct7_out_reg [6:0] $end
$upscope $end
$scope module EXMEM $end
$var wire 32 8" ALUdata_i [31:0] $end
$var wire 32 9" ALUdata_o [31:0] $end
$var wire 1 3 Branch_o $end
$var wire 3 :" MEMsig_i [2:0] $end
$var wire 1 4 MemRead_o $end
$var wire 1 5 MemWrite_o $end
$var wire 5 ;" RDaddr_i [4:0] $end
$var wire 5 <" RDaddr_o [4:0] $end
$var wire 32 =" RS2data_i [31:0] $end
$var wire 32 >" RS2data_o [31:0] $end
$var wire 2 ?" WBsig_i [1:0] $end
$var wire 2 @" WBsig_o [1:0] $end
$var wire 1 ) clk_i $end
$var reg 32 A" ALUdata_in_reg [31:0] $end
$var reg 32 B" ALUdata_out_reg [31:0] $end
$var reg 1 C" Branch_out_reg $end
$var reg 3 D" MEMsig_in_reg [2:0] $end
$var reg 1 E" MemRead_out_reg $end
$var reg 1 F" MemWrite_out_reg $end
$var reg 5 G" RDaddr_in_reg [4:0] $end
$var reg 5 H" RDaddr_out_reg [4:0] $end
$var reg 32 I" RS2data_in_reg [31:0] $end
$var reg 32 J" RS2data_out_reg [31:0] $end
$var reg 2 K" WBsig_in_reg [1:0] $end
$var reg 2 L" WBsig_out_reg [1:0] $end
$upscope $end
$scope module MEMWB $end
$var wire 32 M" ALUdata_i [31:0] $end
$var wire 32 N" ALUdata_o [31:0] $end
$var wire 1 L MemToReg_o $end
$var wire 32 O" Memdata_i [31:0] $end
$var wire 32 P" Memdata_o [31:0] $end
$var wire 5 Q" RDaddr_i [4:0] $end
$var wire 5 R" RDaddr_o [4:0] $end
$var wire 1 O RegWrite_o $end
$var wire 2 S" WBsig_i [1:0] $end
$var wire 1 ) clk_i $end
$var reg 32 T" ALUdata_in_reg [31:0] $end
$var reg 32 U" ALUdata_out_reg [31:0] $end
$var reg 1 V" MemToReg_out_reg $end
$var reg 32 W" Memdata_in_reg [31:0] $end
$var reg 32 X" Memdata_out_reg [31:0] $end
$var reg 5 Y" RDaddr_in_reg [4:0] $end
$var reg 5 Z" RDaddr_out_reg [4:0] $end
$var reg 1 [" RegWrite_out_reg $end
$var reg 2 \" WBsig_in_reg [1:0] $end
$upscope $end
$scope module FWD $end
$var wire 5 ]" EXMEM_RegRd_i [4:0] $end
$var wire 1 ^" EXMEM_RegWr_i $end
$var wire 5 _" IDEX_RegRs_i [4:0] $end
$var wire 5 `" IDEX_RegRt_i [4:0] $end
$var wire 5 a" MEMWB_RegRd_i [4:0] $end
$var wire 1 O MEMWB_RegWr_i $end
$var reg 2 b" Fw1_o [1:0] $end
$var reg 2 c" Fw2_o [1:0] $end
$upscope $end
$scope module HDU $end
$var wire 5 d" ID_EX_RegRd_i [4:0] $end
$var wire 1 e" MemRead_i $end
$var wire 32 f" instr_i [31:0] $end
$var wire 1 + start_i $end
$var reg 1 g" IF_ID_o $end
$var reg 1 h" PC_o $end
$var reg 1 i" mux8_o $end
$upscope $end
$scope module ALU_Control $end
$var wire 3 j" ALUCtrl_o [2:0] $end
$var wire 2 k" ALUOp_i [1:0] $end
$var wire 3 l" funct3_i [2:0] $end
$var wire 7 m" funct7_i [6:0] $end
$var reg 3 n" tmp_ALUCtrl [2:0] $end
$upscope $end
$scope module ALU $end
$var wire 3 o" ALUCtrl_i [2:0] $end
$var wire 32 p" data1_i [31:0] $end
$var wire 32 q" data2_i [31:0] $end
$var wire 32 r" data_o [31:0] $end
$var reg 8 s" sum [7:0] $end
$upscope $end
$scope module AND $end
$var wire 1 J and_o $end
$var wire 1 t" data1_i $end
$var wire 1 1 data2_i $end
$upscope $end
$scope module Control $end
$var wire 8 u" Control_o [7:0] $end
$var wire 7 v" Op_i [6:0] $end
$var reg 3 w" Ex [2:0] $end
$var reg 3 x" Mem [2:0] $end
$var reg 2 y" Wb [1:0] $end
$upscope $end
$scope module Data_Memory $end
$var wire 1 4 MemRead_i $end
$var wire 1 5 MemWrite_i $end
$var wire 32 z" addr_i [31:0] $end
$var wire 32 {" data_i [31:0] $end
$var reg 32 |" data_o [31:0] $end
$upscope $end
$scope module EQ $end
$var wire 32 }" data1_i [31:0] $end
$var wire 32 ~" data2_i [31:0] $end
$var wire 1 1 equal_o $end
$var reg 1 !# tmp $end
$upscope $end
$scope module PC $end
$var wire 1 ) clk_i $end
$var wire 32 "# pc_i [31:0] $end
$var wire 1 : stall_i $end
$var wire 1 + start_i $end
$var reg 32 ## pc_o [31:0] $end
$upscope $end
$scope module Registers $end
$var wire 5 $# RDaddr_i [4:0] $end
$var wire 32 %# RDdata_i [31:0] $end
$var wire 5 &# RSaddr_i [4:0] $end
$var wire 32 '# RSdata_o [31:0] $end
$var wire 5 (# RTaddr_i [4:0] $end
$var wire 32 )# RTdata_o [31:0] $end
$var wire 1 O RegWrite_i $end
$var wire 1 ) clk_i $end
$upscope $end
$scope module Sign_Extend $end
$var wire 32 *# data_i [31:0] $end
$var wire 32 +# data_o [31:0] $end
$var reg 32 ,# tmp [31:0] $end
$upscope $end
$scope module Shift_left $end
$var wire 32 -# data_i [31:0] $end
$var wire 32 .# data_o [31:0] $end
$upscope $end
$scope module MUX8 $end
$var wire 8 /# data1_i [7:0] $end
$var wire 1 ; select_i $end
$var reg 3 0# EX_o [2:0] $end
$var reg 3 1# M_o [2:0] $end
$var reg 2 2# WB_o [1:0] $end
$upscope $end
$scope module MUX_PC $end
$var wire 32 3# data1_i [31:0] $end
$var wire 32 4# data2_i [31:0] $end
$var wire 1 J select_i $end
$var reg 32 5# data_o [31:0] $end
$upscope $end
$scope module MUX_ALUSrc $end
$var wire 32 6# data1_i [31:0] $end
$var wire 32 7# data2_i [31:0] $end
$var wire 1 > select_i $end
$var reg 32 8# data_o [31:0] $end
$upscope $end
$scope module MUX_WB $end
$var wire 32 9# data1_i [31:0] $end
$var wire 32 :# data2_i [31:0] $end
$var wire 1 L select_i $end
$var reg 32 ;# data_o [31:0] $end
$upscope $end
$scope module MUX_FWD1 $end
$var wire 32 <# data1_i [31:0] $end
$var wire 32 =# data2_i [31:0] $end
$var wire 32 ># data3_i [31:0] $end
$var wire 2 ?# select_i [1:0] $end
$var reg 32 @# data_o [31:0] $end
$upscope $end
$scope module MUX_FWD2 $end
$var wire 32 A# data1_i [31:0] $end
$var wire 32 B# data2_i [31:0] $end
$var wire 32 C# data3_i [31:0] $end
$var wire 2 D# select_i [1:0] $end
$var reg 32 E# data_o [31:0] $end
$upscope $end
$scope module PC_Adder $end
$var wire 32 F# data1_i [31:0] $end
$var wire 32 G# data2_i [31:0] $end
$var wire 32 H# data_o [31:0] $end
$upscope $end
$scope module addr_Adder $end
$var wire 32 I# data1_i [31:0] $end
$var wire 32 J# data2_i [31:0] $end
$var wire 32 K# data_o [31:0] $end
$upscope $end
$scope module Instruction_Memory $end
$var wire 32 L# addr_i [31:0] $end
$var wire 32 M# instr_o [31:0] $end
$upscope $end
$upscope $end
$upscope $end
$enddefinitions $end
#0
$dumpvars
b1000010011 M#
b0 L#
bx K#
bx J#
bx0 I#
b100 H#
b100 G#
b0 F#
bx E#
b0 D#
bx C#
bx B#
bx A#
bx @#
b0 ?#
bx >#
bx =#
bx <#
bx ;#
bx :#
bx 9#
bx 8#
bx 7#
bx 6#
b100 5#
bx 4#
b100 3#
bx 2#
bx 1#
bx 0#
bx /#
bx0 .#
bx -#
bx ,#
bx +#
bx *#
bx )#
bx (#
bx '#
bx &#
bx %#
bx $#
b0 ##
b100 "#
0!#
bx ~"
bx }"
bx |"
bx {"
bx z"
bx y"
bx x"
bx w"
bx v"
bx u"
xt"
bx s"
b0xxxxxxxx r"
bx q"
bx p"
bx o"
bx n"
bx m"
bx l"
bx k"
bx j"
0i"
0h"
0g"
bx f"
xe"
bx d"
b0 c"
b0 b"
bx a"
bx `"
bx _"
x^"
bx ]"
bx \"
x["
bx Z"
bx Y"
bx X"
bx W"
xV"
bx U"
bx T"
bx S"
bx R"
bx Q"
bx P"
bx O"
bx N"
bx M"
bx L"
bx K"
bx J"
bx I"
bx H"
bx G"
xF"
xE"
bx D"
xC"
bx B"
b0xxxxxxxx A"
bx @"
bx ?"
bx >"
bx ="
bx <"
bx ;"
bx :"
bx 9"
b0xxxxxxxx 8"
bx 7"
bx 6"
bx 5"
bx 4"
bx 3"
bx 2"
bx 1"
bx 0"
bx /"
bx ."
bx -"
bx ,"
bx +"
bx *"
bx )"
bx ("
bx '"
bx &"
bx %"
bx $"
bx #"
x""
bx !"
bx ~
bx }
bx |
bx {
bx z
bx y
bx x
bx w
bx v
bx u
bx t
bx s
bx r
bx q
bx p
bx o
bx n
bx m
bx l
bx k
bx j
bx i
bx h
bx g
bx f
bx e
bx d
b1000010011 c
bx b
b0 a
b0 `
b0 _
bx0 ^
b1000010011 ]
bx \
bx [
bx Z
bx Y
b0 X
b100 W
bx V
b100 U
bx T
bx S
bx R
bx Q
bx P
xO
bx N
bx M
xL
bx K
0J
bx I
bx H
bx G
bx F
bx E
bx D
bx C
bx B
bx A
bx @
bx ?
x>
bx =
bx <
0;
0:
09
bx 8
bx 7
bx 6
x5
x4
x3
bx 2
01
bx 0
bx /
bx .
b0xxxxxxxx -
bx ,
0+
z*
1)
x(
b0 '
b11 &
b100000 %
b0 $
b0 #
0"
1!
$end
#12
1"
1+
#25
bx 8#
bx ,
bx q"
bx s"
b0xxxxxxxx -
b0xxxxxxxx 8"
b0xxxxxxxx r"
bx E#
bx T
bx ="
bx 6#
bx @#
bx S
bx p"
b0xxxxxxxx B"
b0xxxxxxxx 2
b0xxxxxxxx 9"
b0xxxxxxxx M"
b0xxxxxxxx z"
b0xxxxxxxx >#
b0xxxxxxxx C#
0!
0)
#50
b1000 5#
b1000 U
b1000 "#
b10000010011 ]
b10000010011 c
b10000010011 M#
b100 ##
b1000 W
b1000 3#
b1000 H#
b100 X
b100 a
b100 F#
b100 L#
b1000010011 g
b0 e
b0xxxxxxxx T"
b1 #
1(
1!
1)
#75
bx 8#
bx ,
bx q"
bx s"
b0xxxxxxxx -
b0xxxxxxxx 8"
b0xxxxxxxx r"
0t"
b10 2#
b10 R
b10 y
b0 1#
b0 Q
b0 k
b1 0#
b1 P
b1 j
bx E#
bx T
bx ="
bx 6#
bx @#
bx S
bx p"
1!#
11
b10 y"
b0 x"
b1 w"
b100010 /
b100010 u"
b100010 /#
b0 \
b0 4#
b0 K#
b0 ^
b0 .#
b0 I#
b0xxxxxxxx ;#
b0xxxxxxxx V
b0xxxxxxxx %#
b0xxxxxxxx =#
b0xxxxxxxx B#
b0 (#
b0 Z
b0 u
b0 ~"
b0 )#
b0 &#
b0 Y
b0 q
b0 }"
b0 '#
b10011 v"
b0 {
b0 }
b100 m
b0 s
b0 o
b0 ,#
b0 [
b0 w
b0 +#
b0 -#
b0xxxxxxxx U"
b0xxxxxxxx K
b0xxxxxxxx N"
b0xxxxxxxx 9#
b1000010011 h
b1000010011 H
b1000010011 d
b1000010011 f"
b1000010011 *#
b0 f
b0 I
b0 b
b0 J#
0!
0)
#100
b1100 5#
b1100 U
b1100 "#
b100000000010010010011 ]
b100000000010010010011 c
b100000000010010010011 M#
b1000 ##
b1100 W
b1100 3#
b1100 H#
b1000 X
b1000 a
b1000 F#
b1000 L#
b10000010011 g
b100 e
b0 4"
b0 6"
b100 &"
b0 ,"
b0 ("
b0 0"
b0 ."
b0 *"
b1 #"
b0 $"
b10 2"
b10 #
1!
1)
#125
b0 s"
b0 -
b0 8"
b0 r"
b0 E#
b0 T
b0 ="
b0 6#
b0 @#
b0 S
b0 p"
b0 8#
b0 ,
b0 q"
b1 n"
b1 .
b1 j"
b1 o"
0e"
b1000 m
b0 5"
b0 D
b0 |
b0 l"
b0 7"
b0 E
b0 ~
b0 m"
b100 '"
b100 @
b100 n
b100 ;"
b100 d"
b0 -"
b0 B
b0 t
b0 `"
b0 )"
b0 A
b0 p
b0 _"
b0 1"
b0 G
b0 x
b0 7#
b0 /"
b0 <
b0 v
b0 A#
b0 +"
b0 F
b0 r
b0 <#
1""
1>
b0 !"
b0 =
b0 i
b0 k"
b0 %"
b0 ?
b0 l
b0 :"
b10 3"
b10 C
b10 z
b10 ?"
b10000010011 h
b10000010011 H
b10000010011 d
b10000010011 f"
b10000010011 *#
b100 f
b100 \
b100 4#
b100 K#
b100 I
b100 b
b100 J#
0!
0)
#150
b10000 5#
b10000 U
b10000 "#
b100010010011 ]
b100010010011 c
b100010010011 M#
b1100 ##
b10000 W
b10000 3#
b10000 H#
b1100 X
b1100 a
b1100 F#
b1100 L#
b100000000010010010011 g
b1000 e
b1000 &"
b100 G"
b0 A"
b0 I"
b0 D"
b10 K"
b11 #
1!
1)
#175
b10 ^
b10 .#
b10 I#
1^"
b1 (#
b1001 m
b1 s
b1 ,#
b1 [
b1 w
b1 +#
b1 -#
b100 H"
b100 7
b100 <"
b100 Q"
b100 ]"
b0 B"
b0 2
b0 9"
b0 M"
b0 z"
b0 >#
b0 C#
b0 J"
b0 6
b0 >"
b0 {"
0F"
05
0E"
04
0C"
03
b10 L"
b10 8
b10 @"
b10 S"
b1000 '"
b1000 @
b1000 n
b1000 ;"
b1000 d"
b100000000010010010011 h
b100000000010010010011 H
b100000000010010010011 d
b100000000010010010011 f"
b100000000010010010011 *#
b1000 f
b1010 \
b1010 4#
b1010 K#
b1000 I
b1000 b
b1000 J#
0!
0)
#200
b10100 5#
b10100 U
b10100 "#
b100000000100100010011 ]
b100000000100100010011 c
b100000000100100010011 M#
b10000 ##
b10100 W
b10100 3#
b10100 H#
b10000 X
b10000 a
b10000 F#
b10000 L#
b100010010011 g
b1100 e
b1001 &"
b1 ,"
b1 0"
b1000 G"
b100 Y"
b0 T"
b10 \"
b100 #
1!
1)
#225
b1 s"
b1 -
b1 8"
b1 r"
b0 ^
b0 .#
b0 I#
b0 ;#
b0 V
b0 %#
b0 =#
b0 B#
b1 8#
b1 ,
b1 q"
b0 (#
b10001 m
b0 s
b0 ,#
b0 [
b0 w
b0 +#
b0 -#
b100 Z"
b100 N
b100 R"
b100 a"
b100 $#
b0 U"
b0 K
b0 N"
b0 9#
0V"
0L
1["
1O
b1000 H"
b1000 7
b1000 <"
b1000 Q"
b1000 ]"
b1001 '"
b1001 @
b1001 n
b1001 ;"
b1001 d"
b1 -"
b1 B
b1 t
b1 `"
b1 1"
b1 G
b1 x
b1 7#
b100010010011 h
b100010010011 H
b100010010011 d
b100010010011 f"
b100010010011 *#
b1100 f
b1100 \
b1100 4#
b1100 K#
b1100 I
b1100 b
b1100 J#
0!
0)
#250
b11000 5#
b11000 U
b11000 "#
b100010100000000011 ]
b100010100000000011 c
b100010100000000011 M#
b10100 ##
b11000 W
b11000 3#
b11000 H#
b10100 X
b10100 a
b10100 F#
b10100 L#
b100000000100100010011 g
b10000 e
b10001 &"
b0 ,"
b0 0"
b1001 G"
b1 A"
b1000 Y"
b101 #
1!
1)
#275
b0 s"
b0 -
b0 8"
b0 r"
b10 ^
b10 .#
b10 I#
b0 8#
b0 ,
b0 q"
b1 (#
b10010 m
b1 s
b1 ,#
b1 [
b1 w
b1 +#
b1 -#
b1000 Z"
b1000 N
b1000 R"
b1000 a"
b1000 $#
b1001 H"
b1001 7
b1001 <"
b1001 Q"
b1001 ]"
b1 B"
b1 2
b1 9"
b1 M"
b1 z"
b1 >#
b1 C#
b10001 '"
b10001 @
b10001 n
b10001 ;"
b10001 d"
b0 -"
b0 B
b0 t
b0 `"
b0 1"
b0 G
b0 x
b0 7#
b100000000100100010011 h
b100000000100100010011 H
b100000000100100010011 d
b100000000100100010011 f"
b100000000100100010011 *#
b10000 f
b10010 \
b10010 4#
b10010 K#
b10000 I
b10000 b
b10000 J#
0!
0)
#300
b11100 5#
b11100 U
b11100 "#
b10000000101000010011 ]
b10000000101000010011 c
b10000000101000010011 M#
b11000 ##
b11100 W
b11100 3#
b11100 H#
b11000 X
b11000 a
b11000 F#
b11000 L#
b100010100000000011 g
b10100 e
b10010 &"
b1 ,"
b1 0"
b10001 G"
b0 A"
b1001 Y"
b1 T"
b110 #
1!
1)
#325
b11 2#
b11 R
b11 y
b10 1#
b10 Q
b10 k
b1 s"
b1 -
b1 8"
b1 r"
b11 y"
b10 x"
b101011 /
b101011 u"
b101011 /#
b0 ^
b0 .#
b0 I#
b1 ;#
b1 V
b1 %#
b1 =#
b1 B#
b1 8#
b1 ,
b1 q"
b0 (#
b100 &#
b11 v"
b10 {
b10000 m
b0 s
b100 o
b0 ,#
b0 [
b0 w
b0 +#
b0 -#
b1001 Z"
b1001 N
b1001 R"
b1001 a"
b1001 $#
b1 U"
b1 K
b1 N"
b1 9#
b10001 H"
b10001 7
b10001 <"
b10001 Q"
b10001 ]"
b0 B"
b0 2
b0 9"
b0 M"
b0 z"
b0 >#
b0 C#
b10010 '"
b10010 @
b10010 n
b10010 ;"
b10010 d"
b1 -"
b1 B
b1 t
b1 `"
b1 1"
b1 G
b1 x
b1 7#
b100010100000000011 h
b100010100000000011 H
b100010100000000011 d
b100010100000000011 f"
b100010100000000011 *#
b10100 f
b10100 \
b10100 4#
b10100 K#
b10100 I
b10100 b
b10100 J#
0!
0)
#350
b100000 5#
b100000 U
b100000 "#
b1000000100110000000100000110011 ]
b1000000100110000000100000110011 c
b1000000100110000000100000110011 M#
b11100 ##
b100000 W
b100000 3#
b100000 H#
b11100 X
b11100 a
b11100 F#
b11100 L#
b10000000101000010011 g
b11000 e
b10 4"
b10000 &"
b0 ,"
b100 ("
b0 0"
b10 $"
b11 2"
b10010 G"
b1 A"
b10001 Y"
b0 T"
b111 #
1!
1)
#375
b0 2#
b0 R
b0 y
b0 1#
b0 Q
b0 k
b0 0#
b0 P
b0 j
b0 s"
b0 -
b0 8"
b0 r"
1i"
1;
1g"
19
1h"
1:
b10 y"
b0 x"
b100010 /
b100010 u"
b100010 /#
b0 ;#
b0 V
b0 %#
b0 =#
b0 B#
b0 8#
b0 ,
b0 q"
1e"
b10000 &#
b10011 v"
b0 {
b10100 m
b10000 o
b10001 Z"
b10001 N
b10001 R"
b10001 a"
b10001 $#
b0 U"
b0 K
b0 N"
b0 9#
b10010 H"
b10010 7
b10010 <"
b10010 Q"
b10010 ]"
b1 B"
b1 2
b1 9"
b1 M"
b1 z"
b1 >#
b1 C#
b10 5"
b10 D
b10 |
b10 l"
b10000 '"
b10000 @
b10000 n
b10000 ;"
b10000 d"
b0 -"
b0 B
b0 t
b0 `"
b100 )"
b100 A
b100 p
b100 _"
b0 1"
b0 G
b0 x
b0 7#
b10 %"
b10 ?
b10 l
b10 :"
b11 3"
b11 C
b11 z
b11 ?"
b10000000101000010011 h
b10000000101000010011 H
b10000000101000010011 d
b10000000101000010011 f"
b10000000101000010011 *#
b11000 f
b11000 \
b11000 4#
b11000 K#
b11000 I
b11000 b
b11000 J#
0!
0)
#400
b0 4"
b10100 &"
b10000 ("
b0 #"
b0 $"
b0 2"
b10000 G"
b0 A"
b10 D"
b11 K"
b10010 Y"
b1 T"
b1000 #
b1 '
1!
1)
#425
b101 |"
b101 0
b101 O"
b10 2#
b10 R
b10 y
b1 0#
b1 P
b1 j
b1 ;#
b1 V
b1 %#
b1 =#
b1 B#
0i"
0;
0g"
09
0h"
0:
b10 b"
b10 _
b10 ?#
0e"
b10010 Z"
b10010 N
b10010 R"
b10010 a"
b10010 $#
b1 U"
b1 K
b1 N"
b1 9#
b10000 H"
b10000 7
b10000 <"
b10000 Q"
b10000 ]"
b0 B"
b0 2
b0 9"
b0 M"
b0 z"
b0 >#
b0 C#
1E"
14
b11 L"
b11 8
b11 @"
b11 S"
b0 5"
b0 D
b0 |
b0 l"
b10100 '"
b10100 @
b10100 n
b10100 ;"
b10100 d"
b10000 )"
b10000 A
b10000 p
b10000 _"
0""
0>
b0 %"
b0 ?
b0 l
b0 :"
b0 3"
b0 C
b0 z
b0 ?"
0!
0)
#450
b100100 5#
b100100 U
b100100 "#
b1001010001000100010110011 ]
b1001010001000100010110011 c
b1001010001000100010110011 M#
b100000 ##
b100100 W
b100100 3#
b100100 H#
b100000 X
b100000 a
b100000 F#
b100000 L#
b1000000100110000000100000110011 g
b11100 e
b1 #"
b10 2"
b10100 G"
b0 D"
b0 K"
b10000 Y"
b0 T"
b101 W"
b11 \"
b1001 #
1!
1)
#475
b101 s"
b101 -
b101 8"
b101 r"
b101 @#
b101 S
b101 p"
b101 Y
b101 q
b101 }"
b101 '#
b100 0#
b100 P
b100 j
0!#
01
b100 w"
b10000010 /
b10000010 u"
b10000010 /#
b101 ;#
b101 V
b101 %#
b101 =#
b101 B#
b1 b"
b1 _
b1 ?#
0^"
b1001 (#
b1 Z
b1 u
b1 ~"
b1 )#
b110011 v"
b100000 }
b10000 m
b1001 s
b10000 Z"
b10000 N
b10000 R"
b10000 a"
b10000 $#
b101 X"
b101 M
b101 P"
b101 :#
b0 U"
b0 K
b0 N"
b0 9#
1V"
1L
b10100 H"
b10100 7
b10100 <"
b10100 Q"
b10100 ]"
0E"
04
b0 L"
b0 8
b0 @"
b0 S"
1""
1>
b10 3"
b10 C
b10 z
b10 ?"
b1000000100110000000100000110011 h
b1000000100110000000100000110011 H
b1000000100110000000100000110011 d
b1000000100110000000100000110011 f"
b1000000100110000000100000110011 *#
b11100 f
b11100 \
b11100 4#
b11100 K#
b11100 I
b11100 b
b11100 J#
0!
0)
#500
b101000 5#
b101000 U
b101000 "#
b10010000100110010011 ]
b10010000100110010011 c
b10010000100110010011 M#
b100100 ##
b101000 W
b101000 3#
b101000 H#
b100100 X
b100100 a
b100100 F#
b100100 L#
b1001010001000100010110011 g
b100000 e
b100000 6"
b10000 &"
b1001 ,"
b1 ."
b101 *"
b100 #"
b101 A"
b10 K"
b10100 Y"
b0 \"
b1010 #
1!
1)
#525
b1 8#
b1 ,
b1 q"
b1 E#
b1 T
b1 ="
b1 6#
b10 n"
b10 .
b10 j"
b10 o"
b100 s"
b100 -
b100 8"
b100 r"
b0 ;#
b0 V
b0 %#
b0 =#
b0 B#
1^"
b0 b"
b0 _
b0 ?#
b101 @#
b101 S
b101 p"
b10010 (#
b10001 &#
b0 Y
b0 q
b0 }"
b0 '#
b0 }
b10001 m
b10010 s
b10001 o
b10100 Z"
b10100 N
b10100 R"
b10100 a"
b10100 $#
0V"
0L
0["
0O
b101 B"
b101 2
b101 9"
b101 M"
b101 z"
b101 >#
b101 C#
b10 L"
b10 8
b10 @"
b10 S"
b100000 7"
b100000 E
b100000 ~
b100000 m"
b10000 '"
b10000 @
b10000 n
b10000 ;"
b10000 d"
b1001 -"
b1001 B
b1001 t
b1001 `"
b1 /"
b1 <
b1 v
b1 A#
b101 +"
b101 F
b101 r
b101 <#
0""
0>
b10 !"
b10 =
b10 i
b10 k"
b1001010001000100010110011 h
b1001010001000100010110011 H
b1001010001000100010110011 d
b1001010001000100010110011 f"
b1001010001000100010110011 *#
b100000 f
b100000 \
b100000 4#
b100000 K#
b100000 I
b100000 b
b100000 J#
0!
0)
#550
b101100 5#
b101100 U
b101100 "#
b10001000100100010011 ]
b10001000100100010011 c
b10001000100100010011 M#
b101000 ##
b101100 W
b101100 3#
b101100 H#
b101000 X
b101000 a
b101000 F#
b101000 L#
b10010000100110010011 g
b100100 e
b0 6"
b10001 &"
b10010 ,"
b10001 ("
b0 *"
b10000 G"
b100 A"
b1 I"
b101 T"
b10 \"
b1011 #
1!
1)
